%YAML 1.1
%TAG !u! tag:unity3d.com,2011:
--- !u!1045 &1
EditorBuildSettings:
  m_ObjectHideFlags: 0
  serializedVersion: 2
  m_Scenes:
  - enabled: 0
    path: Assets/Scenes/outdoor.unity
  - enabled: 0
    path: Assets/Scenes/indoor.unity
  - enabled: 1
    path: Assets/Scenes/StartScreen.unity
  - enabled: 1
    path: Assets/Scenes/ShackExterior.unity
  - enabled: 1
    path: Assets/Scenes/ShackInterior.unity
  - enabled: 1
    path: Assets/Scenes/GameOverScreen.unity
  - enabled: 1
    path: Assets/Scenes/WinOverScreen.unity
